<?xml version="1.0" encoding="UTF-8" standalone="no"?>
<!-- Created with Inkscape (http://www.inkscape.org/) -->

<svg
   width="90"
   height="90"
   id="svg4874"
   version="1.1"
   inkscape:version="1.2 (56b05e47e7, 2022-06-09, custom)"
   viewBox="0 0 90 90.000001"
   sodipodi:docname="online-account-google.svg"
   xml:space="preserve"
   xmlns:inkscape="http://www.inkscape.org/namespaces/inkscape"
   xmlns:sodipodi="http://sodipodi.sourceforge.net/DTD/sodipodi-0.dtd"
   xmlns="http://www.w3.org/2000/svg"
   xmlns:svg="http://www.w3.org/2000/svg"
   xmlns:rdf="http://www.w3.org/1999/02/22-rdf-syntax-ns#"
   xmlns:cc="http://creativecommons.org/ns#"
   xmlns:dc="http://purl.org/dc/elements/1.1/"><defs
     id="defs4876" /><sodipodi:namedview
     id="base"
     pagecolor="#ffffff"
     bordercolor="#666666"
     borderopacity="1.0"
     inkscape:pageopacity="0.0"
     inkscape:pageshadow="2"
     inkscape:zoom="4.866221"
     inkscape:cx="33.907215"
     inkscape:cy="49.833331"
     inkscape:document-units="px"
     inkscape:current-layer="g1311"
     showgrid="true"
     showborder="true"
     fit-margin-top="0"
     fit-margin-left="0"
     fit-margin-right="0"
     fit-margin-bottom="0"
     inkscape:snap-bbox="true"
     inkscape:bbox-paths="true"
     inkscape:bbox-nodes="true"
     inkscape:snap-bbox-edge-midpoints="true"
     inkscape:snap-bbox-midpoints="true"
     inkscape:object-paths="true"
     inkscape:snap-intersection-paths="true"
     inkscape:object-nodes="true"
     inkscape:snap-smooth-nodes="true"
     inkscape:snap-midpoints="true"
     inkscape:snap-object-midpoints="true"
     inkscape:snap-center="true"
     showguides="true"
     inkscape:guide-bbox="true"
     inkscape:showpageshadow="2"
     inkscape:pagecheckerboard="0"
     inkscape:deskcolor="#d1d1d1"
     inkscape:window-width="1294"
     inkscape:window-height="704"
     inkscape:window-x="0"
     inkscape:window-y="0"
     inkscape:window-maximized="1"><inkscape:grid
       type="xygrid"
       id="grid5451"
       empspacing="6" /><sodipodi:guide
       orientation="1,0"
       position="6,77"
       id="guide4063"
       inkscape:locked="false" /><sodipodi:guide
       orientation="1,0"
       position="3,78"
       id="guide4065"
       inkscape:locked="false" /><sodipodi:guide
       orientation="0,1"
       position="55,84"
       id="guide4067"
       inkscape:locked="false" /><sodipodi:guide
       orientation="0,1"
       position="53,87"
       id="guide4069"
       inkscape:locked="false" /><sodipodi:guide
       orientation="0,1"
       position="20,3"
       id="guide4071"
       inkscape:locked="false" /><sodipodi:guide
       orientation="0,1"
       position="20,6"
       id="guide4073"
       inkscape:locked="false" /><sodipodi:guide
       orientation="1,0"
       position="87,7"
       id="guide4075"
       inkscape:locked="false" /><sodipodi:guide
       orientation="1,0"
       position="84,7"
       id="guide4077"
       inkscape:locked="false" /><sodipodi:guide
       orientation="0,1"
       position="58,81"
       id="guide4074"
       inkscape:locked="false" /><sodipodi:guide
       orientation="1,0"
       position="9,74"
       id="guide4076"
       inkscape:locked="false" /><sodipodi:guide
       orientation="0,1"
       position="21,9"
       id="guide4078"
       inkscape:locked="false" /><sodipodi:guide
       orientation="1,0"
       position="81,4"
       id="guide4080"
       inkscape:locked="false" /></sodipodi:namedview><metadata
     id="metadata4879"><rdf:RDF><cc:Work
         rdf:about=""><dc:format>image/svg+xml</dc:format><dc:type
           rdf:resource="http://purl.org/dc/dcmitype/StillImage" /></cc:Work></rdf:RDF></metadata><g
     inkscape:label="Layer 1"
     inkscape:groupmode="layer"
     id="layer1"
     transform="translate(67.857146,-84.50504)"><g
       transform="matrix(0,-1,-1,0,373.50506,516.50504)"
       id="g4845"
       style="display:inline"><g
         transform="matrix(0,-1,-1,0,567.36222,615.36221)"
         id="g1311"
         inkscape:export-filename="envelope02.png"
         inkscape:export-xdpi="90"
         inkscape:export-ydpi="90"><g
           id="g1313"
           transform="matrix(1.875,0,0,1.875,-366,-1657.8169)"><rect
             transform="translate(0,804.3622)"
             y="152"
             x="288"
             height="48"
             width="48"
             id="rect1315"
             style="opacity:0.21171169;fill:none;stroke:none" /></g><g
           id="XMLID_55_"
           transform="matrix(0.50034004,0,0,0.49249659,182.10544,143.58434)"><path
             style="fill:#737373;fill-opacity:1"
             d="m 110.4,43.1 c -4.6,-4.7 -9.6,-8.3 -14.9,-10.8 -5.3,-2.5 -12,-3.7 -19.7,-3.7 -6.2,0 -12.1,1.1 -17.6,3.3 -5.5,2.2 -10.3,5.3 -14.4,9.3 -4.2,4 -7.5,8.9 -9.9,14.6 -2.4,5.7 -3.6,12 -3.6,19 0,7 1.2,13.3 3.6,19 2.4,5.7 5.7,10.5 9.9,14.5 4.2,4 9.1,7.2 14.6,9.4 5.5,2.2 11.5,3.3 17.8,3.3 6.7,0 12.6,-0.9 17.6,-2.8 5,-1.9 9.3,-4.5 12.9,-7.7 2.4,-2.2 4.6,-4.9 6.5,-8.1 1.9,-3.3 3.4,-6.9 4.5,-10.9 H 75.4 v -24 h 69 c 0.4,1.6 0.7,3.5 1,5.9 0.3,2.4 0.4,4.6 0.4,6.9 0,9.5 -1.4,18.1 -4.2,26 -2.8,7.9 -7.1,14.8 -12.7,20.9 -6.3,6.7 -13.8,11.8 -22.6,15.5 -8.8,3.7 -18.9,5.5 -30.2,5.5 -10.2,0 -19.8,-1.8 -28.8,-5.5 -9,-3.7 -16.9,-8.8 -23.7,-15.3 -6.7,-6.5 -12,-14.2 -16,-23.1 -4,-8.9 -5.9,-18.8 -5.9,-29.4 0,-10.6 2,-20.4 5.9,-29.4 3.9,-9 9.2,-16.7 16,-23.2 C 30.3,15.8 38.2,10.8 47.3,7.1 56.4,3.4 66,1.6 76.1,1.6 c 11.6,0 21.9,2 30.8,6 8.9,4 16.6,9.5 23.1,16.5 z"
             id="XMLID_69_" /><g
             id="XMLID_56_" /></g></g></g></g></svg>
